^C:\USERS\TIM\DESKTOP\BWSAL_0.9.12\BASICAIMODULE\RELEASE\ASSIGNMENT.OBJ|C:\USERS\TIM\DESKTOP\BWSAL_0.9.12\BASICAIMODULE\RELEASE\BASE.OBJ|C:\USERS\TIM\DESKTOP\BWSAL_0.9.12\BASICAIMODULE\RELEASE\BASEMANAGER.OBJ|C:\USERS\TIM\DESKTOP\BWSAL_0.9.12\BASICAIMODULE\RELEASE\BASICAIMODULE.OBJ|C:\USERS\TIM\DESKTOP\BWSAL_0.9.12\BASICAIMODULE\RELEASE\BORDERMANAGER.OBJ|C:\USERS\TIM\DESKTOP\BWSAL_0.9.12\BASICAIMODULE\RELEASE\BUILDINGPLACER.OBJ|C:\USERS\TIM\DESKTOP\BWSAL_0.9.12\BASICAIMODULE\RELEASE\BUILDMANAGER.OBJ|C:\USERS\TIM\DESKTOP\BWSAL_0.9.12\BASICAIMODULE\RELEASE\BUILDORDERMANAGER.OBJ|C:\USERS\TIM\DESKTOP\BWSAL_0.9.12\BASICAIMODULE\RELEASE\CONSTRUCTIONMANAGER.OBJ|C:\USERS\TIM\DESKTOP\BWSAL_0.9.12\BASICAIMODULE\RELEASE\DEFENSEMANAGER.OBJ|C:\USERS\TIM\DESKTOP\BWSAL_0.9.12\BASICAIMODULE\RELEASE\DLL.OBJ|C:\USERS\TIM\DESKTOP\BWSAL_0.9.12\BASICAIMODULE\RELEASE\ENHANCEDUI.OBJ|C:\USERS\TIM\DESKTOP\BWSAL_0.9.12\BASICAIMODULE\RELEASE\INFORMATIONMANAGER.OBJ|C:\USERS\TIM\DESKTOP\BWSAL_0.9.12\BASICAIMODULE\RELEASE\METAUNIT.OBJ|C:\USERS\TIM\DESKTOP\BWSAL_0.9.12\BASICAIMODULE\RELEASE\MORPHMANAGER.OBJ|C:\USERS\TIM\DESKTOP\BWSAL_0.9.12\BASICAIMODULE\RELEASE\PRODUCTIONMANAGER.OBJ|C:\USERS\TIM\DESKTOP\BWSAL_0.9.12\BASICAIMODULE\RELEASE\SCOUTMANAGER.OBJ|C:\USERS\TIM\DESKTOP\BWSAL_0.9.12\BASICAIMODULE\RELEASE\SUPPLYMANAGER.OBJ|C:\USERS\TIM\DESKTOP\BWSAL_0.9.12\BASICAIMODULE\RELEASE\TECHMANAGER.OBJ|C:\USERS\TIM\DESKTOP\BWSAL_0.9.12\BASICAIMODULE\RELEASE\UNITGROUP.OBJ|C:\USERS\TIM\DESKTOP\BWSAL_0.9.12\BASICAIMODULE\RELEASE\UNITGROUPMANAGER.OBJ|C:\USERS\TIM\DESKTOP\BWSAL_0.9.12\BASICAIMODULE\RELEASE\UNITITEM.OBJ|C:\USERS\TIM\DESKTOP\BWSAL_0.9.12\BASICAIMODULE\RELEASE\UPGRADEMANAGER.OBJ|C:\USERS\TIM\DESKTOP\BWSAL_0.9.12\BASICAIMODULE\RELEASE\UTIL.OBJ|C:\USERS\TIM\DESKTOP\BWSAL_0.9.12\BASICAIMODULE\RELEASE\WORKERMANAGER.OBJ
C:\WINDOWS\WINSXS\X86_MICROSOFT.VC90.CRT_1FC8B3B9A1E18E3B_9.0.30729.6161_NONE_50934F2EBCB7EB57\MSVCR90.DLL
C:\USERS\TIM\DESKTOP\BWSAL_0.9.12\LIB\BWAPI.LIB
C:\USERS\TIM\DESKTOP\BWSAL_0.9.12\LIB\BWTA.LIB
C:\USERS\TIM\DESKTOP\BWSAL_0.9.12\LIB\TINYXML.LIB
C:\USERS\TIM\DESKTOP\BWSAL_0.9.12\LIB\CGAL-VC90-MT.LIB
C:\USERS\TIM\DESKTOP\BWSAL_0.9.12\LIB\LIBBOOST_THREAD-VC90-MT-1_40.LIB
C:\USERS\TIM\DESKTOP\BWSAL_0.9.12\LIB\GMP-VC90-MT.LIB
C:\USERS\TIM\DESKTOP\BWSAL_0.9.12\LIB\MPFR-VC90-MT.LIB
C:\PROGRAM FILES\MICROSOFT SDKS\WINDOWS\V6.0A\LIB\KERNEL32.LIB
C:\PROGRAM FILES\MICROSOFT SDKS\WINDOWS\V6.0A\LIB\USER32.LIB
C:\PROGRAM FILES\MICROSOFT SDKS\WINDOWS\V6.0A\LIB\GDI32.LIB
C:\PROGRAM FILES\MICROSOFT SDKS\WINDOWS\V6.0A\LIB\WINSPOOL.LIB
C:\PROGRAM FILES\MICROSOFT SDKS\WINDOWS\V6.0A\LIB\COMDLG32.LIB
C:\PROGRAM FILES\MICROSOFT SDKS\WINDOWS\V6.0A\LIB\ADVAPI32.LIB
C:\PROGRAM FILES\MICROSOFT SDKS\WINDOWS\V6.0A\LIB\SHELL32.LIB
C:\PROGRAM FILES\MICROSOFT SDKS\WINDOWS\V6.0A\LIB\OLE32.LIB
C:\PROGRAM FILES\MICROSOFT SDKS\WINDOWS\V6.0A\LIB\OLEAUT32.LIB
C:\PROGRAM FILES\MICROSOFT SDKS\WINDOWS\V6.0A\LIB\UUID.LIB
C:\PROGRAM FILES\MICROSOFT SDKS\WINDOWS\V6.0A\LIB\ODBC32.LIB
C:\PROGRAM FILES\MICROSOFT SDKS\WINDOWS\V6.0A\LIB\ODBCCP32.LIB
C:\USERS\TIM\DESKTOP\BWSAL_0.9.12\BASICAIMODULE\RELEASE\ASSIGNMENT.OBJ
C:\USERS\TIM\DESKTOP\BWSAL_0.9.12\BASICAIMODULE\RELEASE\BASICAIMODULE.OBJ
C:\USERS\TIM\DESKTOP\BWSAL_0.9.12\BASICAIMODULE\RELEASE\DLL.OBJ
C:\USERS\TIM\DESKTOP\BWSAL_0.9.12\BASICAIMODULE\RELEASE\ENHANCEDUI.OBJ
C:\USERS\TIM\DESKTOP\BWSAL_0.9.12\BASICAIMODULE\RELEASE\UTIL.OBJ
C:\USERS\TIM\DESKTOP\BWSAL_0.9.12\BASICAIMODULE\RELEASE\WORKERMANAGER.OBJ
C:\USERS\TIM\DESKTOP\BWSAL_0.9.12\BASICAIMODULE\RELEASE\BASE.OBJ
C:\USERS\TIM\DESKTOP\BWSAL_0.9.12\BASICAIMODULE\RELEASE\BASEMANAGER.OBJ
C:\USERS\TIM\DESKTOP\BWSAL_0.9.12\BASICAIMODULE\RELEASE\BORDERMANAGER.OBJ
C:\USERS\TIM\DESKTOP\BWSAL_0.9.12\BASICAIMODULE\RELEASE\BUILDINGPLACER.OBJ
C:\USERS\TIM\DESKTOP\BWSAL_0.9.12\BASICAIMODULE\RELEASE\BUILDMANAGER.OBJ
C:\USERS\TIM\DESKTOP\BWSAL_0.9.12\BASICAIMODULE\RELEASE\BUILDORDERMANAGER.OBJ
C:\USERS\TIM\DESKTOP\BWSAL_0.9.12\BASICAIMODULE\RELEASE\METAUNIT.OBJ
C:\USERS\TIM\DESKTOP\BWSAL_0.9.12\BASICAIMODULE\RELEASE\UNITITEM.OBJ
C:\USERS\TIM\DESKTOP\BWSAL_0.9.12\BASICAIMODULE\RELEASE\CONSTRUCTIONMANAGER.OBJ
C:\USERS\TIM\DESKTOP\BWSAL_0.9.12\BASICAIMODULE\RELEASE\DEFENSEMANAGER.OBJ
C:\USERS\TIM\DESKTOP\BWSAL_0.9.12\BASICAIMODULE\RELEASE\INFORMATIONMANAGER.OBJ
C:\USERS\TIM\DESKTOP\BWSAL_0.9.12\BASICAIMODULE\RELEASE\MORPHMANAGER.OBJ
C:\USERS\TIM\DESKTOP\BWSAL_0.9.12\BASICAIMODULE\RELEASE\PRODUCTIONMANAGER.OBJ
C:\USERS\TIM\DESKTOP\BWSAL_0.9.12\BASICAIMODULE\RELEASE\SCOUTMANAGER.OBJ
C:\USERS\TIM\DESKTOP\BWSAL_0.9.12\BASICAIMODULE\RELEASE\SUPPLYMANAGER.OBJ
C:\USERS\TIM\DESKTOP\BWSAL_0.9.12\BASICAIMODULE\RELEASE\TECHMANAGER.OBJ
C:\USERS\TIM\DESKTOP\BWSAL_0.9.12\BASICAIMODULE\RELEASE\UNITGROUP.OBJ
C:\USERS\TIM\DESKTOP\BWSAL_0.9.12\BASICAIMODULE\RELEASE\UNITGROUPMANAGER.OBJ
C:\USERS\TIM\DESKTOP\BWSAL_0.9.12\BASICAIMODULE\RELEASE\UPGRADEMANAGER.OBJ
C:\WINDOWS\GLOBALIZATION\SORTING\SORTDEFAULT.NLS
C:\PROGRAM FILES (X86)\MICROSOFT VISUAL STUDIO 9.0\VC\BIN\C2.DLL
C:\PROGRAM FILES (X86)\MICROSOFT VISUAL STUDIO 9.0\VC\LIB\MSVCPRT.LIB
C:\PROGRAM FILES (X86)\MICROSOFT VISUAL STUDIO 9.0\VC\LIB\MSVCRT.LIB
C:\PROGRAM FILES (X86)\MICROSOFT VISUAL STUDIO 9.0\VC\LIB\OLDNAMES.LIB
C:\PROGRAM FILES (X86)\MICROSOFT VISUAL STUDIO 9.0\VC\LIB\LIBCMT.LIB
C:\WINDOWS\SYSTEM32\TZRES.DLL
C:\PROGRAM FILES (X86)\MICROSOFT VISUAL STUDIO 9.0\VC\BIN\1033\LINKUI.DLL
C:\USERS\TIM\DESKTOP\BWSAL_0.9.12\RELEASE\BASICAIMODULE.EXP
