^C:\USERS\TIM\DESKTOP\BWSAL_0.9.12\BASICAIMODULE\RELEASE\BASICAIMODULE.DLL.INTERMEDIATE.MANIFEST
C:\WINDOWS\MICROSOFT.NET\FRAMEWORK\V2.0.50727\MSCORWKS.DLL
C:\WINDOWS\MICROSOFT.NET\FRAMEWORK\V4.0.30319\CLR.DLL
C:\PROGRAM FILES\MICROSOFT SDKS\WINDOWS\V6.0A\BIN\MT.EXE
C:\USERS\TIM\DESKTOP\BWSAL_0.9.12\RELEASE\BASICAIMODULE.DLL
